solid PRT0001
  facet normal -1.000000e+00 0.000000e+00 0.000000e+00
    outer loop
      vertex -3.000000e+00 0.000000e+00 -6.500000e+00
      vertex -3.000000e+00 1.500000e+00 -3.500000e+00
      vertex -3.000000e+00 1.500000e+00 -5.000000e+00
    endloop
  endfacet
  facet normal -8.944272e-01 4.472136e-01 -3.530715e-16
    outer loop
      vertex 0.000000e+00 7.500000e+00 -3.500000e+00
      vertex -3.000000e+00 1.500000e+00 -5.000000e+00
      vertex -3.000000e+00 1.500000e+00 -3.500000e+00
    endloop
  endfacet
  facet normal -1.000000e+00 0.000000e+00 0.000000e+00
    outer loop
      vertex -3.000000e+00 7.500000e+00 -5.000000e+00
      vertex -3.000000e+00 0.000000e+00 -6.500000e+00
      vertex -3.000000e+00 1.500000e+00 -5.000000e+00
    endloop
  endfacet
  facet normal 0.000000e+00 0.000000e+00 1.000000e+00
    outer loop
      vertex 0.000000e+00 7.500000e+00 -5.000000e+00
      vertex -3.000000e+00 7.500000e+00 -5.000000e+00
      vertex -3.000000e+00 1.500000e+00 -5.000000e+00
    endloop
  endfacet
  facet normal -8.944272e-01 4.472136e-01 0.000000e+00
    outer loop
      vertex 0.000000e+00 7.500000e+00 -3.500000e+00
      vertex 0.000000e+00 7.500000e+00 -5.000000e+00
      vertex -3.000000e+00 1.500000e+00 -5.000000e+00
    endloop
  endfacet
  facet normal -1.000000e+00 0.000000e+00 0.000000e+00
    outer loop
      vertex -3.000000e+00 0.000000e+00 -6.500000e+00
      vertex -3.000000e+00 1.500000e+00 0.000000e+00
      vertex -3.000000e+00 1.500000e+00 -3.500000e+00
    endloop
  endfacet
  facet normal 0.000000e+00 1.000000e+00 0.000000e+00
    outer loop
      vertex -1.500000e+00 1.500000e+00 0.000000e+00
      vertex -3.000000e+00 1.500000e+00 -3.500000e+00
      vertex -3.000000e+00 1.500000e+00 0.000000e+00
    endloop
  endfacet
  facet normal 0.000000e+00 1.000000e+00 0.000000e+00
    outer loop
      vertex 1.500000e+00 1.500000e+00 -1.500000e+00
      vertex 3.000000e+00 1.500000e+00 -3.500000e+00
      vertex -3.000000e+00 1.500000e+00 -3.500000e+00
    endloop
  endfacet
  facet normal 0.000000e+00 0.000000e+00 1.000000e+00
    outer loop
      vertex 0.000000e+00 7.500000e+00 -3.500000e+00
      vertex -3.000000e+00 1.500000e+00 -3.500000e+00
      vertex 3.000000e+00 1.500000e+00 -3.500000e+00
    endloop
  endfacet
  facet normal 0.000000e+00 1.000000e+00 0.000000e+00
    outer loop
      vertex -1.500000e+00 1.500000e+00 -1.500000e+00
      vertex 1.500000e+00 1.500000e+00 -1.500000e+00
      vertex -3.000000e+00 1.500000e+00 -3.500000e+00
    endloop
  endfacet
  facet normal 0.000000e+00 1.000000e+00 0.000000e+00
    outer loop
      vertex -1.500000e+00 1.500000e+00 0.000000e+00
      vertex -1.500000e+00 1.500000e+00 -1.500000e+00
      vertex -3.000000e+00 1.500000e+00 -3.500000e+00
    endloop
  endfacet
  facet normal -1.000000e+00 0.000000e+00 0.000000e+00
    outer loop
      vertex -3.000000e+00 0.000000e+00 -6.500000e+00
      vertex -3.000000e+00 0.000000e+00 0.000000e+00
      vertex -3.000000e+00 1.500000e+00 0.000000e+00
    endloop
  endfacet
  facet normal 0.000000e+00 0.000000e+00 1.000000e+00
    outer loop
      vertex -1.500000e+00 0.000000e+00 0.000000e+00
      vertex -3.000000e+00 1.500000e+00 0.000000e+00
      vertex -3.000000e+00 0.000000e+00 0.000000e+00
    endloop
  endfacet
  facet normal 0.000000e+00 0.000000e+00 1.000000e+00
    outer loop
      vertex -1.500000e+00 1.500000e+00 0.000000e+00
      vertex -3.000000e+00 1.500000e+00 0.000000e+00
      vertex -1.500000e+00 0.000000e+00 0.000000e+00
    endloop
  endfacet
  facet normal 0.000000e+00 -1.000000e+00 0.000000e+00
    outer loop
      vertex -1.500000e+00 0.000000e+00 0.000000e+00
      vertex -3.000000e+00 0.000000e+00 0.000000e+00
      vertex -3.000000e+00 0.000000e+00 -6.500000e+00
    endloop
  endfacet
  facet normal -1.000000e+00 0.000000e+00 0.000000e+00
    outer loop
      vertex -3.000000e+00 7.500000e+00 -5.000000e+00
      vertex -3.000000e+00 7.500000e+00 -6.500000e+00
      vertex -3.000000e+00 0.000000e+00 -6.500000e+00
    endloop
  endfacet
  facet normal 0.000000e+00 0.000000e+00 -1.000000e+00
    outer loop
      vertex 3.000000e+00 0.000000e+00 -6.500000e+00
      vertex -3.000000e+00 0.000000e+00 -6.500000e+00
      vertex -3.000000e+00 7.500000e+00 -6.500000e+00
    endloop
  endfacet
  facet normal 0.000000e+00 -1.000000e+00 0.000000e+00
    outer loop
      vertex 3.000000e+00 0.000000e+00 0.000000e+00
      vertex -3.000000e+00 0.000000e+00 -6.500000e+00
      vertex 3.000000e+00 0.000000e+00 -6.500000e+00
    endloop
  endfacet
  facet normal 0.000000e+00 -1.000000e+00 0.000000e+00
    outer loop
      vertex 1.500000e+00 0.000000e+00 0.000000e+00
      vertex -3.000000e+00 0.000000e+00 -6.500000e+00
      vertex 3.000000e+00 0.000000e+00 0.000000e+00
    endloop
  endfacet
  facet normal 0.000000e+00 -1.000000e+00 0.000000e+00
    outer loop
      vertex 1.500000e+00 0.000000e+00 0.000000e+00
      vertex -1.500000e+00 0.000000e+00 0.000000e+00
      vertex -3.000000e+00 0.000000e+00 -6.500000e+00
    endloop
  endfacet
  facet normal 0.000000e+00 1.000000e+00 0.000000e+00
    outer loop
      vertex 0.000000e+00 7.500000e+00 -5.000000e+00
      vertex -3.000000e+00 7.500000e+00 -6.500000e+00
      vertex -3.000000e+00 7.500000e+00 -5.000000e+00
    endloop
  endfacet
  facet normal 0.000000e+00 1.000000e+00 0.000000e+00
    outer loop
      vertex 3.000000e+00 7.500000e+00 -6.500000e+00
      vertex -3.000000e+00 7.500000e+00 -6.500000e+00
      vertex 3.000000e+00 7.500000e+00 -5.000000e+00
    endloop
  endfacet
  facet normal 0.000000e+00 1.000000e+00 0.000000e+00
    outer loop
      vertex 0.000000e+00 7.500000e+00 -5.000000e+00
      vertex 3.000000e+00 7.500000e+00 -5.000000e+00
      vertex -3.000000e+00 7.500000e+00 -6.500000e+00
    endloop
  endfacet
  facet normal 0.000000e+00 0.000000e+00 -1.000000e+00
    outer loop
      vertex 3.000000e+00 0.000000e+00 -6.500000e+00
      vertex -3.000000e+00 7.500000e+00 -6.500000e+00
      vertex 3.000000e+00 7.500000e+00 -6.500000e+00
    endloop
  endfacet
  facet normal 1.000000e+00 0.000000e+00 0.000000e+00
    outer loop
      vertex 3.000000e+00 7.500000e+00 -6.500000e+00
      vertex 3.000000e+00 7.500000e+00 -5.000000e+00
      vertex 3.000000e+00 1.500000e+00 -5.000000e+00
    endloop
  endfacet
  facet normal 0.000000e+00 0.000000e+00 1.000000e+00
    outer loop
      vertex 0.000000e+00 7.500000e+00 -5.000000e+00
      vertex 3.000000e+00 1.500000e+00 -5.000000e+00
      vertex 3.000000e+00 7.500000e+00 -5.000000e+00
    endloop
  endfacet
  facet normal 1.000000e+00 0.000000e+00 0.000000e+00
    outer loop
      vertex 3.000000e+00 0.000000e+00 -6.500000e+00
      vertex 3.000000e+00 7.500000e+00 -6.500000e+00
      vertex 3.000000e+00 1.500000e+00 -5.000000e+00
    endloop
  endfacet
  facet normal 1.000000e+00 0.000000e+00 0.000000e+00
    outer loop
      vertex 3.000000e+00 0.000000e+00 0.000000e+00
      vertex 3.000000e+00 0.000000e+00 -6.500000e+00
      vertex 3.000000e+00 1.500000e+00 -5.000000e+00
    endloop
  endfacet
  facet normal 1.000000e+00 0.000000e+00 0.000000e+00
    outer loop
      vertex 3.000000e+00 1.500000e+00 -3.500000e+00
      vertex 3.000000e+00 0.000000e+00 0.000000e+00
      vertex 3.000000e+00 1.500000e+00 -5.000000e+00
    endloop
  endfacet
  facet normal 8.944272e-01 4.472136e-01 0.000000e+00
    outer loop
      vertex 0.000000e+00 7.500000e+00 -5.000000e+00
      vertex 3.000000e+00 1.500000e+00 -3.500000e+00
      vertex 3.000000e+00 1.500000e+00 -5.000000e+00
    endloop
  endfacet
  facet normal 1.000000e+00 0.000000e+00 0.000000e+00
    outer loop
      vertex 3.000000e+00 1.500000e+00 -3.500000e+00
      vertex 3.000000e+00 1.500000e+00 0.000000e+00
      vertex 3.000000e+00 0.000000e+00 0.000000e+00
    endloop
  endfacet
  facet normal 0.000000e+00 0.000000e+00 1.000000e+00
    outer loop
      vertex 1.500000e+00 1.500000e+00 0.000000e+00
      vertex 3.000000e+00 0.000000e+00 0.000000e+00
      vertex 3.000000e+00 1.500000e+00 0.000000e+00
    endloop
  endfacet
  facet normal 0.000000e+00 0.000000e+00 1.000000e+00
    outer loop
      vertex 1.500000e+00 1.500000e+00 0.000000e+00
      vertex 1.500000e+00 0.000000e+00 0.000000e+00
      vertex 3.000000e+00 0.000000e+00 0.000000e+00
    endloop
  endfacet
  facet normal 0.000000e+00 1.000000e+00 0.000000e+00
    outer loop
      vertex 1.500000e+00 1.500000e+00 -1.500000e+00
      vertex 3.000000e+00 1.500000e+00 0.000000e+00
      vertex 3.000000e+00 1.500000e+00 -3.500000e+00
    endloop
  endfacet
  facet normal 0.000000e+00 1.000000e+00 0.000000e+00
    outer loop
      vertex 1.500000e+00 1.500000e+00 -1.500000e+00
      vertex 1.500000e+00 1.500000e+00 0.000000e+00
      vertex 3.000000e+00 1.500000e+00 0.000000e+00
    endloop
  endfacet
  facet normal 8.944272e-01 4.472136e-01 0.000000e+00
    outer loop
      vertex 0.000000e+00 7.500000e+00 -3.500000e+00
      vertex 3.000000e+00 1.500000e+00 -3.500000e+00
      vertex 0.000000e+00 7.500000e+00 -5.000000e+00
    endloop
  endfacet
  facet normal 0.000000e+00 7.071068e-01 7.071068e-01
    outer loop
      vertex -1.500000e+00 1.500000e+00 -1.500000e+00
      vertex -1.500000e+00 0.000000e+00 0.000000e+00
      vertex 1.500000e+00 0.000000e+00 0.000000e+00
    endloop
  endfacet
  facet normal 1.000000e+00 0.000000e+00 0.000000e+00
    outer loop
      vertex -1.500000e+00 1.500000e+00 0.000000e+00
      vertex -1.500000e+00 0.000000e+00 0.000000e+00
      vertex -1.500000e+00 1.500000e+00 -1.500000e+00
    endloop
  endfacet
  facet normal -1.000000e+00 0.000000e+00 0.000000e+00
    outer loop
      vertex 1.500000e+00 1.500000e+00 -1.500000e+00
      vertex 1.500000e+00 0.000000e+00 0.000000e+00
      vertex 1.500000e+00 1.500000e+00 0.000000e+00
    endloop
  endfacet
  facet normal 0.000000e+00 7.071068e-01 7.071068e-01
    outer loop
      vertex -1.500000e+00 1.500000e+00 -1.500000e+00
      vertex 1.500000e+00 0.000000e+00 0.000000e+00
      vertex 1.500000e+00 1.500000e+00 -1.500000e+00
    endloop
  endfacet
endsolid PRT0001
